********************************************************************************
PACKAGE-LOG: 2015-11-13 00:20:10
NOTICE: Do NOT post to public sites or forums 
********************************************************************************
VERSION:	0.5.32
WORDPRESS:	4.3.1
PHP INFO:	5.5.30-1+deb.sury.org~trusty+1 | SAPI: apache2handler
SERVER:		Apache/2.4.16 (Ubuntu) 
PHP TIME LIMIT: (0) no time limit imposed 
PHP MAX MEMORY: 5000M (128M default) 
MEMORY STACK: 14.25MB 

********************************************************************************
DATABASE:
********************************************************************************
BUILD MODE:   PHP(query limit - 100)
MYSQLTIMEOUT: 5000
MYSQLDUMP:    Is Supported 
TABLES: total:23 | filtered:0 | create:23 
FILTERED: [] 
SQL CREATED: 20151311_before_iris_56452c6dcbe177988151113001853_database.sql 
file size:5027228 
SQL FILE SIZE: 4.79MB 
SQL FILE TIME: 2015-11-13 00:20:10 
SQL RUNTIME: 0.45 sec. 

******************************************************************************** 
ARCHIVE (ZIP): 
******************************************************************************** 
ARCHIVE DIR:  /var/www/animalpolice.org.il 
ARCHIVE FILE: 20151311_before_iris_56452c6dcbe177988151113001853_archive.zip 
FILTERS: *OFF* 
DIRS:  not set 
EXTS:  not set 
---------------------------------------- 
COMPRESSING 
SIZE:	103.74MB 
STATS:	Dirs 688 | Files 5,402 
SQL ADDED: 20151311_before_iris_56452c6dcbe177988151113001853_database.sql 
ZipArchive Object
(
    [status] => 0
    [statusSys] => 0
    [numFiles] => 6090
    [filename] => /var/www/animalpolice.org.il/wp-snapshots/tmp/20151311_before_iris_56452c6dcbe177988151113001853_archive.zip
    [comment] => 
)
 
COMPRESSION RESULT: '1' 
COMPRESSED SIZE: 58.66MB 
ARCHIVE RUNTIME: 13.38 sec. 
MEMORY STACK: 17.25MB 

******************************************************************************** 
MAKE INSTALLER: 
******************************************************************************** 
Build Start 
Build Finished 
Preping for use 
Template parsed with new data 
Complete [/var/www/animalpolice.org.il/wp-snapshots/tmp/20151311_before_iris_56452c6dcbe177988151113001853_installer.php] 
Added to archive 

******************************************************************************** 
INTEGRITY CHECKS: 
******************************************************************************** 
SQL File: 4.79MB 
Installer File: 318KB 
Archive File: 58.66MB  

********************************************************************************
RECORD ID:[8]
TOTAL PROCESS RUNTIME: 14.45 sec.
PEAK PHP MEMORY USED: 19.25MB
DONE PROCESSING => 20151311_before_iris 2015-11-13 00:20:24
 
